[2023-07-03 07:15:27,286] [INFO] [MainProcess] - ALERT_AUTH: '<very-secret>'
[2023-07-03 07:15:27,286] [INFO] [MainProcess] - ALERT_URL: 'https://gitlab.com/geometalab/osm-wikidata-quality-checker/alerts/notify/owqc-status/52b66d0804a3654c.json'
[2023-07-03 07:15:27,287] [INFO] [MainProcess] - CHECK_OSMOSE_COUNTRY_COMMIT_HASH: 'dcd34d082680fee2a64ca901cb555a597bdf9879'
[2023-07-03 07:15:27,287] [INFO] [MainProcess] - DO_CHECKS: 'True'
[2023-07-03 07:15:27,287] [INFO] [MainProcess] - DO_OSM_DOWNLOAD: 'True'
[2023-07-03 07:15:27,287] [INFO] [MainProcess] - DO_OSM_IMPORT: 'True'
[2023-07-03 07:15:27,287] [INFO] [MainProcess] - DO_SEND_OSMOSE: 'True'
[2023-07-03 07:15:27,287] [INFO] [MainProcess] - DO_WD_DOWNLOAD: 'True'
[2023-07-03 07:15:27,287] [INFO] [MainProcess] - DO_WD_IMPORT: 'True'
[2023-07-03 07:15:27,287] [INFO] [MainProcess] - DO_WD_REDIRECTS_DOWNLOAD: 'True'
[2023-07-03 07:15:27,287] [INFO] [MainProcess] - DO_WD_REDIRECTS_IMPORT: 'True'
[2023-07-03 07:15:27,287] [INFO] [MainProcess] - INSTANCE_NAME: 'latest_manual'
[2023-07-03 07:15:27,287] [INFO] [MainProcess] - LOG_FOLDER: '/data/logs'
[2023-07-03 07:15:27,287] [INFO] [MainProcess] - MP_CPU_THRESHOLD: '4'
[2023-07-03 07:15:27,287] [INFO] [MainProcess] - OSMOSE_API_HOST: 'https://osmose.openstreetmap.fr'
[2023-07-03 07:15:27,287] [INFO] [MainProcess] - OSMOSE_CODE: '<very-secret>'
[2023-07-03 07:15:27,287] [INFO] [MainProcess] - OSMOSE_SOURCE: 'Wikidata'
[2023-07-03 07:15:27,287] [INFO] [MainProcess] - OSM_DB_MIN_ALLOWED_FILESIZE: '17000000000'
[2023-07-03 07:15:27,287] [INFO] [MainProcess] - OSM_DUMP_MIN_ALLOWED_FILESIZE: '69000000000'
[2023-07-03 07:15:27,287] [INFO] [MainProcess] - OSM_DUMP_URL: 'https://planet.openstreetmap.org/pbf/planet-latest.osm.pbf'
[2023-07-03 07:15:27,287] [INFO] [MainProcess] - PATH_2_OSMOSE_COUNTRY_CONFIG: '/app/osm_wikidata_quality_checker/res'
[2023-07-03 07:15:27,287] [INFO] [MainProcess] - PATH_2_OSMOSE_REPORTS_FOLDER: 'None'
[2023-07-03 07:15:27,287] [INFO] [MainProcess] - PATH_2_OSM_DB: '/data/db/osm.db'
[2023-07-03 07:15:27,287] [INFO] [MainProcess] - PATH_2_OSM_DUMP: '/data/dumps/planet-latest.osm.pbf'
[2023-07-03 07:15:27,287] [INFO] [MainProcess] - PATH_2_WD_DB: '/data/db/wikidata.db'
[2023-07-03 07:15:27,287] [INFO] [MainProcess] - PATH_2_WD_DUMP: '/data/dumps/latest-all.json.bz2'
[2023-07-03 07:15:27,287] [INFO] [MainProcess] - PATH_2_WD_REDIRECTS: '/data/dumps/qredirects.csv'
[2023-07-03 07:15:27,287] [INFO] [MainProcess] - PATH_2_WD_REDIRECTS_DB: '/data/db/redirects.db'
[2023-07-03 07:15:27,287] [INFO] [MainProcess] - REPORT_FOLDER: '/data/reports'
[2023-07-03 07:15:27,287] [INFO] [MainProcess] - USE_FILE_IDX_CACHE: 'True'
[2023-07-03 07:15:27,287] [INFO] [MainProcess] - WD_DB_MIN_ALLOWED_FILESIZE: '40000000000'
[2023-07-03 07:15:27,287] [INFO] [MainProcess] - WD_DUMP_MIN_ALLOWED_FILESIZE: '76000000000'
[2023-07-03 07:15:27,287] [INFO] [MainProcess] - WD_DUMP_URL: 'https://dumps.wikimedia.org/wikidatawiki/entities/latest-all.json.bz2'
[2023-07-03 07:15:27,287] [INFO] [MainProcess] - WD_REDIRECTS_URL: 'https://query.wikidata.org/sparql'
[2023-07-03 07:15:27,549] [WARNING] [MainProcess] - osmose country config last commit hash does not match: is 110869e22aa5d41549a751c991c64aba448b35c3 was dcd34d082680fee2a64ca901cb555a597bdf9879
[2023-07-03 07:15:27,859] [INFO] [MainProcess] - alert sent: WARNING osmose country config commit hash outdated
[2023-07-03 07:15:28,165] [INFO] [MainProcess] - alert sent: Start download
[2023-07-03 07:15:28,165] [INFO] [MainProcess] - start download
[2023-07-03 12:05:58,954] [INFO] [MainProcess] - end download
[2023-07-03 12:05:59,439] [INFO] [MainProcess] - alert sent: Start import
[2023-07-03 12:05:59,439] [INFO] [MainProcess] - start import (osm=True / wd=True) / redirects=True)
[2023-07-03 12:05:59,439] [INFO] [MainProcess] - filesize check ok: 74800580988 >= 69000000000 for /data/dumps/planet-latest.osm.pbf
[2023-07-03 12:05:59,440] [INFO] [MainProcess] - start import osm dump
[2023-07-03 12:05:59,440] [INFO] [MainProcess] - remove existing databases at /data/db/osm.db
[2023-07-03 12:06:11,181] [INFO] [MainProcess] - filesize check ok: 82906188849 >= 76000000000 for /data/dumps/latest-all.json.bz2
[2023-07-03 12:06:11,181] [INFO] [MainProcess] - start import wd dump
[2023-07-03 12:06:11,181] [INFO] [MainProcess] - remove existing databases at /data/db/wikidata.db
[2023-07-03 12:06:28,463] [INFO] [MainProcess] - start import wd redirects
[2023-07-03 12:06:28,463] [INFO] [MainProcess] - remove existing databases at /data/db/redirects.db
[2023-07-03 12:58:55,672] [INFO] [MainProcess] - end import for wd redirects
[2023-07-04 02:56:51,542] [INFO] [MainProcess] - end import for wd dump
[2023-07-04 16:40:57,237] [INFO] [MainProcess] - end import osm dump
[2023-07-04 16:40:57,295] [INFO] [MainProcess] - end import
[2023-07-04 16:40:57,860] [INFO] [MainProcess] - alert sent: Start check
[2023-07-04 16:40:57,864] [INFO] [MainProcess] - filesize check ok: 20091977728 >= 17000000000 for /data/db/osm.db
[2023-07-04 16:40:57,864] [INFO] [MainProcess] - filesize check ok: 42206633984 >= 40000000000 for /data/db/wikidata.db
[2023-07-04 16:40:57,864] [INFO] [MainProcess] - start check all (mp)
[2023-07-04 16:40:58,085] [INFO] [MainProcess] - start Osmose report
[2023-07-04 16:54:25,838] [ERROR] [reporter] - TopologyException: side location conflict at 35.252544399999998 31.767230000000001. This can occur if the input geometry is invalid.
[2023-07-04 16:54:25,842] [INFO] [reporter] - Self-intersection at or near point 35.22195789772033 31.575741904111286
[2023-07-04 16:54:25,842] [ERROR] [reporter] - Exception within analyser israel_west_bank (IL oid=1803010) while cheking location of node 332783944 : The operation 'GEOSWithin_r' could not be performed. Likely cause is invalidity of the geometry <shapely.geometry.multipolygon.MultiPolygon object at 0x7fdb1dbe89a0>
[2023-07-04 17:00:20,169] [ERROR] [reporter] - TopologyException: side location conflict at 35.252544399999998 31.767230000000001. This can occur if the input geometry is invalid.
[2023-07-04 17:00:20,173] [INFO] [reporter] - Self-intersection at or near point 35.22195789772033 31.575741904111286
[2023-07-04 17:00:20,173] [ERROR] [reporter] - Exception within analyser israel_west_bank (IL oid=1803010) while cheking location of node 432264959 : The operation 'GEOSWithin_r' could not be performed. Likely cause is invalidity of the geometry <shapely.geometry.multipolygon.MultiPolygon object at 0x7fdb1dbe89a0>
[2023-07-04 17:00:20,202] [ERROR] [reporter] - TopologyException: side location conflict at 35.252544399999998 31.767230000000001. This can occur if the input geometry is invalid.
[2023-07-04 17:00:20,206] [INFO] [reporter] - Self-intersection at or near point 35.22195789772033 31.575741904111286
[2023-07-04 17:00:20,207] [ERROR] [reporter] - Exception within analyser israel_west_bank (IL oid=1803010) while cheking location of node 432282513 : The operation 'GEOSWithin_r' could not be performed. Likely cause is invalidity of the geometry <shapely.geometry.multipolygon.MultiPolygon object at 0x7fdb1dbe89a0>
[2023-07-04 17:06:20,698] [ERROR] [reporter] - TopologyException: side location conflict at 35.252544399999998 31.767230000000001. This can occur if the input geometry is invalid.
[2023-07-04 17:06:20,702] [INFO] [reporter] - Self-intersection at or near point 35.22195789772033 31.575741904111286
[2023-07-04 17:06:20,702] [ERROR] [reporter] - Exception within analyser israel_west_bank (IL oid=1803010) while cheking location of way 144964434 : The operation 'GEOSWithin_r' could not be performed. Likely cause is invalidity of the geometry <shapely.geometry.multipolygon.MultiPolygon object at 0x7fdb1dbe89a0>
[2023-07-04 17:08:06,000] [ERROR] [reporter] - TopologyException: side location conflict at 35.252544399999998 31.767230000000001. This can occur if the input geometry is invalid.
[2023-07-04 17:08:06,004] [INFO] [reporter] - Self-intersection at or near point 35.22195789772033 31.575741904111286
[2023-07-04 17:08:06,005] [ERROR] [reporter] - Exception within analyser israel_west_bank (IL oid=1803010) while cheking location of node 1320835678 : The operation 'GEOSWithin_r' could not be performed. Likely cause is invalidity of the geometry <shapely.geometry.multipolygon.MultiPolygon object at 0x7fdb1dbe89a0>
[2023-07-04 17:30:51,358] [ERROR] [reporter] - TopologyException: side location conflict at 35.252544399999998 31.767230000000001. This can occur if the input geometry is invalid.
[2023-07-04 17:30:51,364] [INFO] [reporter] - Self-intersection at or near point 35.22195789772033 31.575741904111286
[2023-07-04 17:30:51,364] [ERROR] [reporter] - Exception within analyser israel_west_bank (IL oid=1803010) while cheking location of node 4214091695 : The operation 'GEOSWithin_r' could not be performed. Likely cause is invalidity of the geometry <shapely.geometry.multipolygon.MultiPolygon object at 0x7fdb1dbe89a0>
[2023-07-04 17:50:21,856] [ERROR] [reporter] - TopologyException: side location conflict at 35.252544399999998 31.767230000000001. This can occur if the input geometry is invalid.
[2023-07-04 17:50:21,861] [INFO] [reporter] - Self-intersection at or near point 35.22195789772033 31.575741904111286
[2023-07-04 17:50:21,861] [ERROR] [reporter] - Exception within analyser israel_west_bank (IL oid=1803010) while cheking location of node 8253581918 : The operation 'GEOSWithin_r' could not be performed. Likely cause is invalidity of the geometry <shapely.geometry.multipolygon.MultiPolygon object at 0x7fdb1dbe89a0>
[2023-07-04 17:50:21,980] [ERROR] [reporter] - TopologyException: side location conflict at 35.252544399999998 31.767230000000001. This can occur if the input geometry is invalid.
[2023-07-04 17:50:21,985] [INFO] [reporter] - Self-intersection at or near point 35.22195789772033 31.575741904111286
[2023-07-04 17:50:21,985] [ERROR] [reporter] - Exception within analyser israel_west_bank (IL oid=1803010) while cheking location of node 8259280601 : The operation 'GEOSWithin_r' could not be performed. Likely cause is invalidity of the geometry <shapely.geometry.multipolygon.MultiPolygon object at 0x7fdb1dbe89a0>
[2023-07-04 18:00:45,487] [ERROR] [reporter] - TopologyException: side location conflict at 35.252544399999998 31.767230000000001. This can occur if the input geometry is invalid.
[2023-07-04 18:00:45,492] [INFO] [reporter] - Self-intersection at or near point 35.22195789772033 31.575741904111286
[2023-07-04 18:00:45,492] [ERROR] [reporter] - Exception within analyser israel_west_bank (IL oid=1803010) while cheking location of way 593207623 : The operation 'GEOSWithin_r' could not be performed. Likely cause is invalidity of the geometry <shapely.geometry.multipolygon.MultiPolygon object at 0x7fdb1dbe89a0>
[2023-07-04 18:05:53,819] [INFO] [reporter] - skipped relations with no coordinates: 924
[2023-07-04 18:05:53,819] [INFO] [reporter] - start save Osmose reports to /data/reports/osmose_report_2023-07-03_07-15
[2023-07-04 18:05:55,102] [WARNING] [reporter] - no country analyser found for 37 issue
[2023-07-04 18:05:55,102] [INFO] [reporter] - end save Osmose reports
[2023-07-04 18:05:55,102] [INFO] [reporter] - start sending reports to Osmose
[2023-07-04 18:06:21,043] [ERROR] [reporter] - send xml to Osmose for country 'portugal' retuned status code (403 Forbidden) and detail: AUTH FAIL
[2023-07-04 18:06:58,886] [ERROR] [reporter] - send xml to Osmose for country 'philippines' retuned status code (403 Forbidden) and detail: AUTH FAIL
[2023-07-04 18:08:03,858] [ERROR] [reporter] - end sending reports (2 out of 1161 reports could not be sent)
[2023-07-04 18:08:03,858] [INFO] [reporter] - end Osmose reporter
[2023-07-04 18:08:04,577] [INFO] [MainProcess] - end check all (mp)
[2023-07-04 18:08:05,045] [INFO] [MainProcess] - alert sent: End run
[2023-07-04 18:08:05,045] [INFO] [MainProcess] - total runtime: 1 days / 10.9 hours
